<div class="mt-1 mb-3 border border-3">
                    <a href="https://bigdusa.bandcamp.com/" target="_blank" rel="noopener noreferrer"><img
                            src="/assets/ads/bandcamp.png" class="img-fluid"></a>
                </div>
                <div class="mb-3 border border-3"><a href="https://www.facebook.com/groups/DEWaveRunner" target="_blank"
                        rel="noopener noreferrer"><img src="/assets/ads/jetski2.png"
                            class="img-fluid"></a></div>
                <link href="//cdn-images.mailchimp.com/embedcode/classic-10_7.css" rel="stylesheet" type="text/css">
                <style type="text/css">
                    #mc_embed_signup {
                        background: #fff;
                        clear: left;
                        font: 14px Helvetica, Arial, sans-serif;
                    }
                </style>
                <div id="mc_embed_signup">
                    <form
                        action="https://dangibson.us20.list-manage.com/subscribe/post?u=5b9984cd91aafb971b0bc4157&amp;id=7c7e69c8a1"
                        method="post" id="mc-embedded-subscribe-form" name="mc-embedded-subscribe-form" class="validate"
                        target="_blank" novalidate="novalidate">
                        <div id="mc_embed_signup_scroll">
                            <h2>Join The Email List</h2>
                            <div class="indicates-required">
                                <span class="asterisk">*</span> indicates required
                            </div>
                            <div class="mc-field-group">
                                <label for="mce-EMAIL">Email Address <span class="asterisk">*</span>
                                </label>
                                <input type="email" value="" name="EMAIL" class="required email" id="mce-EMAIL"
                                    aria-required="true">
                            </div>
                            <div id="mce-responses" class="clear">
                                <div class="response" id="mce-error-response" style="display:none"></div>
                                <div class="response" id="mce-success-response" style="display:none"></div>
                            </div>
                            <div style="position: absolute; left: -5000px;" aria-hidden="true"><input type="text"
                                    name="b_5b9984cd91aafb971b0bc4157_7c7e69c8a1" tabindex="-1" value=""></div>
                            <div class="clear"><input type="submit" value="Subscribe" name="subscribe"
                                    id="mc-embedded-subscribe" class="button"></div>
                        </div>
                    </form>
                </div>